…
    ## # A tibble: 1 × 12
    ##   r.squared adj.r.squared sigma statistic p.value    df  logLik    AIC    BIC
    ##       <dbl>         <dbl> <dbl>     <dbl>   <dbl> <dbl>   <dbl>  <dbl>  <dbl>
    ## 1     0.718         0.717  272.      551.       0    20 -30498. 61040. 61180.
    ## # … with 3 more variables: deviance <dbl>, df.residual <int>, nobs <int>

``` r
bw_regre_fit %>% 
  broom::tidy()
```

    ## # A tibble: 21 × 5
    ##    term         estimate std.error statistic   p.value
    ##    <chr>           <dbl>     <dbl>     <dbl>     <dbl>
    ##  1 (Intercept) -6423.      140.     -45.8    0        
    ##  2 babysex2       28.7       8.46     3.39   6.94e-  4
    ##  3 bhead         131.        3.45    37.9    1.67e-271
    ##  4 blength        75.0       2.02    37.1    1.53e-261
    ##  5 fincome         0.289     0.179    1.61   1.08e-  1
    ##  6 frace2         14.3      46.1      0.309  7.57e-  1
    ##  7 frace3         21.3      69.3      0.308  7.58e-  1
    ##  8 frace4        -46.9      44.7     -1.05   2.94e-  1
    ##  9 frace8          4.06     74.1      0.0548 9.56e-  1
    ## 10 gaweeks        11.6       1.47     7.88   3.97e- 15
    ## # … with 11 more rows
…
